^C:\OLENKA\DEV\BATTLECITY\BATTLECITY\TENA\TENA.CPP
/c /IC:\OLENKA\DEV\BATTLECITY\BATTLECITY\\UTILS /IC:\OLENKA\DEV\BATTLECITY\BATTLECITY\\GAMEOBJECTS /IC:\OLENKA\DEV\BATTLECITY\BATTLECITY\\UI /IC:\OLENKA\DEV\BATTLECITY\BATTLECITY\\FX /ZI /JMC /nologo /W3 /WX- /diagnostics:column /sdl /Od /D _MBCS /Gm- /EHsc /RTC1 /MDd /GS /fp:precise /permissive- /Zc:wchar_t /Zc:forScope /Zc:inline /std:c++17 /Fo"X64\DEBUG\\" /Fd"X64\DEBUG\VC142.PDB" /Gd /TP /FC C:\OLENKA\DEV\BATTLECITY\BATTLECITY\TENA\TENA.CPP
^C:\OLENKA\DEV\BATTLECITY\BATTLECITY\UTILS\FILEMANAGER.CPP
/c /IC:\OLENKA\DEV\BATTLECITY\BATTLECITY\\UTILS /IC:\OLENKA\DEV\BATTLECITY\BATTLECITY\\GAMEOBJECTS /IC:\OLENKA\DEV\BATTLECITY\BATTLECITY\\UI /IC:\OLENKA\DEV\BATTLECITY\BATTLECITY\\FX /ZI /JMC /nologo /W3 /WX- /diagnostics:column /sdl /Od /D _MBCS /Gm- /EHsc /RTC1 /MDd /GS /fp:precise /permissive- /Zc:wchar_t /Zc:forScope /Zc:inline /std:c++17 /Fo"X64\DEBUG\\" /Fd"X64\DEBUG\VC142.PDB" /Gd /TP /FC C:\OLENKA\DEV\BATTLECITY\BATTLECITY\UTILS\FILEMANAGER.CPP
^C:\OLENKA\DEV\BATTLECITY\BATTLECITY\UTILS\LINE2D.CPP
/c /IC:\OLENKA\DEV\BATTLECITY\BATTLECITY\\UTILS /IC:\OLENKA\DEV\BATTLECITY\BATTLECITY\\GAMEOBJECTS /IC:\OLENKA\DEV\BATTLECITY\BATTLECITY\\UI /IC:\OLENKA\DEV\BATTLECITY\BATTLECITY\\FX /ZI /JMC /nologo /W3 /WX- /diagnostics:column /sdl /Od /D _MBCS /Gm- /EHsc /RTC1 /MDd /GS /fp:precise /permissive- /Zc:wchar_t /Zc:forScope /Zc:inline /std:c++17 /Fo"X64\DEBUG\\" /Fd"X64\DEBUG\VC142.PDB" /Gd /TP /FC C:\OLENKA\DEV\BATTLECITY\BATTLECITY\UTILS\LINE2D.CPP
^C:\OLENKA\DEV\BATTLECITY\BATTLECITY\FX\SPRITELIBRARY.CPP
/c /IC:\OLENKA\DEV\BATTLECITY\BATTLECITY\\UTILS /IC:\OLENKA\DEV\BATTLECITY\BATTLECITY\\GAMEOBJECTS /IC:\OLENKA\DEV\BATTLECITY\BATTLECITY\\UI /IC:\OLENKA\DEV\BATTLECITY\BATTLECITY\\FX /ZI /JMC /nologo /W3 /WX- /diagnostics:column /sdl /Od /D _MBCS /Gm- /EHsc /RTC1 /MDd /GS /fp:precise /permissive- /Zc:wchar_t /Zc:forScope /Zc:inline /std:c++17 /Fo"X64\DEBUG\\" /Fd"X64\DEBUG\VC142.PDB" /Gd /TP /FC C:\OLENKA\DEV\BATTLECITY\BATTLECITY\FX\SPRITELIBRARY.CPP
^C:\OLENKA\DEV\BATTLECITY\BATTLECITY\GAMEOBJECTS\ACTOR.CPP
/c /IC:\OLENKA\DEV\BATTLECITY\BATTLECITY\\UTILS /IC:\OLENKA\DEV\BATTLECITY\BATTLECITY\\GAMEOBJECTS /IC:\OLENKA\DEV\BATTLECITY\BATTLECITY\\UI /IC:\OLENKA\DEV\BATTLECITY\BATTLECITY\\FX /ZI /JMC /nologo /W3 /WX- /diagnostics:column /sdl /Od /D _MBCS /Gm- /EHsc /RTC1 /MDd /GS /fp:precise /permissive- /Zc:wchar_t /Zc:forScope /Zc:inline /std:c++17 /Fo"X64\DEBUG\\" /Fd"X64\DEBUG\VC142.PDB" /Gd /TP /FC C:\OLENKA\DEV\BATTLECITY\BATTLECITY\GAMEOBJECTS\ACTOR.CPP
^C:\OLENKA\DEV\BATTLECITY\BATTLECITY\GAMEOBJECTS\BRICK.CPP
/c /IC:\OLENKA\DEV\BATTLECITY\BATTLECITY\\UTILS /IC:\OLENKA\DEV\BATTLECITY\BATTLECITY\\GAMEOBJECTS /IC:\OLENKA\DEV\BATTLECITY\BATTLECITY\\UI /IC:\OLENKA\DEV\BATTLECITY\BATTLECITY\\FX /ZI /JMC /nologo /W3 /WX- /diagnostics:column /sdl /Od /D _MBCS /Gm- /EHsc /RTC1 /MDd /GS /fp:precise /permissive- /Zc:wchar_t /Zc:forScope /Zc:inline /std:c++17 /Fo"X64\DEBUG\\" /Fd"X64\DEBUG\VC142.PDB" /Gd /TP /FC C:\OLENKA\DEV\BATTLECITY\BATTLECITY\GAMEOBJECTS\BRICK.CPP
^C:\OLENKA\DEV\BATTLECITY\BATTLECITY\GAMEOBJECTS\BULLET.CPP
/c /IC:\OLENKA\DEV\BATTLECITY\BATTLECITY\\UTILS /IC:\OLENKA\DEV\BATTLECITY\BATTLECITY\\GAMEOBJECTS /IC:\OLENKA\DEV\BATTLECITY\BATTLECITY\\UI /IC:\OLENKA\DEV\BATTLECITY\BATTLECITY\\FX /ZI /JMC /nologo /W3 /WX- /diagnostics:column /sdl /Od /D _MBCS /Gm- /EHsc /RTC1 /MDd /GS /fp:precise /permissive- /Zc:wchar_t /Zc:forScope /Zc:inline /std:c++17 /Fo"X64\DEBUG\\" /Fd"X64\DEBUG\VC142.PDB" /Gd /TP /FC C:\OLENKA\DEV\BATTLECITY\BATTLECITY\GAMEOBJECTS\BULLET.CPP
^C:\OLENKA\DEV\BATTLECITY\BATTLECITY\GAMEOBJECTS\LEVELBOUNDARY.CPP
/c /IC:\OLENKA\DEV\BATTLECITY\BATTLECITY\\UTILS /IC:\OLENKA\DEV\BATTLECITY\BATTLECITY\\GAMEOBJECTS /IC:\OLENKA\DEV\BATTLECITY\BATTLECITY\\UI /IC:\OLENKA\DEV\BATTLECITY\BATTLECITY\\FX /ZI /JMC /nologo /W3 /WX- /diagnostics:column /sdl /Od /D _MBCS /Gm- /EHsc /RTC1 /MDd /GS /fp:precise /permissive- /Zc:wchar_t /Zc:forScope /Zc:inline /std:c++17 /Fo"X64\DEBUG\\" /Fd"X64\DEBUG\VC142.PDB" /Gd /TP /FC C:\OLENKA\DEV\BATTLECITY\BATTLECITY\GAMEOBJECTS\LEVELBOUNDARY.CPP
^C:\OLENKA\DEV\BATTLECITY\BATTLECITY\GAMEOBJECTS\SPRITEOBJECT.CPP
/c /IC:\OLENKA\DEV\BATTLECITY\BATTLECITY\\UTILS /IC:\OLENKA\DEV\BATTLECITY\BATTLECITY\\GAMEOBJECTS /IC:\OLENKA\DEV\BATTLECITY\BATTLECITY\\UI /IC:\OLENKA\DEV\BATTLECITY\BATTLECITY\\FX /ZI /JMC /nologo /W3 /WX- /diagnostics:column /sdl /Od /D _MBCS /Gm- /EHsc /RTC1 /MDd /GS /fp:precise /permissive- /Zc:wchar_t /Zc:forScope /Zc:inline /std:c++17 /Fo"X64\DEBUG\\" /Fd"X64\DEBUG\VC142.PDB" /Gd /TP /FC C:\OLENKA\DEV\BATTLECITY\BATTLECITY\GAMEOBJECTS\SPRITEOBJECT.CPP
^C:\OLENKA\DEV\BATTLECITY\BATTLECITY\UTILS\AARECTANGLE.CPP
/c /IC:\OLENKA\DEV\BATTLECITY\BATTLECITY\\UTILS /IC:\OLENKA\DEV\BATTLECITY\BATTLECITY\\GAMEOBJECTS /IC:\OLENKA\DEV\BATTLECITY\BATTLECITY\\UI /IC:\OLENKA\DEV\BATTLECITY\BATTLECITY\\FX /ZI /JMC /nologo /W3 /WX- /diagnostics:column /sdl /Od /D _MBCS /Gm- /EHsc /RTC1 /MDd /GS /fp:precise /permissive- /Zc:wchar_t /Zc:forScope /Zc:inline /std:c++17 /Fo"X64\DEBUG\\" /Fd"X64\DEBUG\VC142.PDB" /Gd /TP /FC C:\OLENKA\DEV\BATTLECITY\BATTLECITY\UTILS\AARECTANGLE.CPP
^C:\OLENKA\DEV\BATTLECITY\BATTLECITY\UTILS\VEC2D.CPP
/c /IC:\OLENKA\DEV\BATTLECITY\BATTLECITY\\UTILS /IC:\OLENKA\DEV\BATTLECITY\BATTLECITY\\GAMEOBJECTS /IC:\OLENKA\DEV\BATTLECITY\BATTLECITY\\UI /IC:\OLENKA\DEV\BATTLECITY\BATTLECITY\\FX /ZI /JMC /nologo /W3 /WX- /diagnostics:column /sdl /Od /D _MBCS /Gm- /EHsc /RTC1 /MDd /GS /fp:precise /permissive- /Zc:wchar_t /Zc:forScope /Zc:inline /std:c++17 /Fo"X64\DEBUG\\" /Fd"X64\DEBUG\VC142.PDB" /Gd /TP /FC C:\OLENKA\DEV\BATTLECITY\BATTLECITY\UTILS\VEC2D.CPP
^C:\OLENKA\DEV\BATTLECITY\BATTLECITY\BATTLECITY.CPP
/c /IC:\OLENKA\DEV\BATTLECITY\BATTLECITY\\UTILS /IC:\OLENKA\DEV\BATTLECITY\BATTLECITY\\GAMEOBJECTS /IC:\OLENKA\DEV\BATTLECITY\BATTLECITY\\UI /IC:\OLENKA\DEV\BATTLECITY\BATTLECITY\\FX /ZI /JMC /nologo /W3 /WX- /diagnostics:column /sdl /Od /D _MBCS /Gm- /EHsc /RTC1 /MDd /GS /fp:precise /permissive- /Zc:wchar_t /Zc:forScope /Zc:inline /std:c++17 /Fo"X64\DEBUG\\" /Fd"X64\DEBUG\VC142.PDB" /Gd /TP /FC C:\OLENKA\DEV\BATTLECITY\BATTLECITY\BATTLECITY.CPP
^C:\OLENKA\DEV\BATTLECITY\BATTLECITY\GAMEOBJECTS\GAMELEVEL.CPP
/c /IC:\OLENKA\DEV\BATTLECITY\BATTLECITY\\UTILS /IC:\OLENKA\DEV\BATTLECITY\BATTLECITY\\GAMEOBJECTS /IC:\OLENKA\DEV\BATTLECITY\BATTLECITY\\UI /IC:\OLENKA\DEV\BATTLECITY\BATTLECITY\\FX /ZI /JMC /nologo /W3 /WX- /diagnostics:column /sdl /Od /D _MBCS /Gm- /EHsc /RTC1 /MDd /GS /fp:precise /permissive- /Zc:wchar_t /Zc:forScope /Zc:inline /std:c++17 /Fo"X64\DEBUG\\" /Fd"X64\DEBUG\VC142.PDB" /Gd /TP /FC C:\OLENKA\DEV\BATTLECITY\BATTLECITY\GAMEOBJECTS\GAMELEVEL.CPP
^C:\OLENKA\DEV\BATTLECITY\BATTLECITY\GAMEOBJECTS\PHOENIX.CPP
/c /IC:\OLENKA\DEV\BATTLECITY\BATTLECITY\\UTILS /IC:\OLENKA\DEV\BATTLECITY\BATTLECITY\\GAMEOBJECTS /IC:\OLENKA\DEV\BATTLECITY\BATTLECITY\\UI /IC:\OLENKA\DEV\BATTLECITY\BATTLECITY\\FX /ZI /JMC /nologo /W3 /WX- /diagnostics:column /sdl /Od /D _MBCS /Gm- /EHsc /RTC1 /MDd /GS /fp:precise /permissive- /Zc:wchar_t /Zc:forScope /Zc:inline /std:c++17 /Fo"X64\DEBUG\\" /Fd"X64\DEBUG\VC142.PDB" /Gd /TP /FC C:\OLENKA\DEV\BATTLECITY\BATTLECITY\GAMEOBJECTS\PHOENIX.CPP
^C:\OLENKA\DEV\BATTLECITY\BATTLECITY\GAMEOBJECTS\TANKBASE.CPP
/c /IC:\OLENKA\DEV\BATTLECITY\BATTLECITY\\UTILS /IC:\OLENKA\DEV\BATTLECITY\BATTLECITY\\GAMEOBJECTS /IC:\OLENKA\DEV\BATTLECITY\BATTLECITY\\UI /IC:\OLENKA\DEV\BATTLECITY\BATTLECITY\\FX /ZI /JMC /nologo /W3 /WX- /diagnostics:column /sdl /Od /D _MBCS /Gm- /EHsc /RTC1 /MDd /GS /fp:precise /permissive- /Zc:wchar_t /Zc:forScope /Zc:inline /std:c++17 /Fo"X64\DEBUG\\" /Fd"X64\DEBUG\VC142.PDB" /Gd /TP /FC C:\OLENKA\DEV\BATTLECITY\BATTLECITY\GAMEOBJECTS\TANKBASE.CPP
^C:\OLENKA\DEV\BATTLECITY\BATTLECITY\UI\USERINTERFACE.CPP
/c /IC:\OLENKA\DEV\BATTLECITY\BATTLECITY\\UTILS /IC:\OLENKA\DEV\BATTLECITY\BATTLECITY\\GAMEOBJECTS /IC:\OLENKA\DEV\BATTLECITY\BATTLECITY\\UI /IC:\OLENKA\DEV\BATTLECITY\BATTLECITY\\FX /ZI /JMC /nologo /W3 /WX- /diagnostics:column /sdl /Od /D _MBCS /Gm- /EHsc /RTC1 /MDd /GS /fp:precise /permissive- /Zc:wchar_t /Zc:forScope /Zc:inline /std:c++17 /Fo"X64\DEBUG\\" /Fd"X64\DEBUG\VC142.PDB" /Gd /TP /FC C:\OLENKA\DEV\BATTLECITY\BATTLECITY\UI\USERINTERFACE.CPP
^C:\OLENKA\DEV\BATTLECITY\BATTLECITY\GAME.CPP
/c /IC:\OLENKA\DEV\BATTLECITY\BATTLECITY\\UTILS /IC:\OLENKA\DEV\BATTLECITY\BATTLECITY\\GAMEOBJECTS /IC:\OLENKA\DEV\BATTLECITY\BATTLECITY\\UI /IC:\OLENKA\DEV\BATTLECITY\BATTLECITY\\FX /ZI /JMC /nologo /W3 /WX- /diagnostics:column /sdl /Od /D _MBCS /Gm- /EHsc /RTC1 /MDd /GS /fp:precise /permissive- /Zc:wchar_t /Zc:forScope /Zc:inline /std:c++17 /Fo"X64\DEBUG\\" /Fd"X64\DEBUG\VC142.PDB" /Gd /TP /FC C:\OLENKA\DEV\BATTLECITY\BATTLECITY\GAME.CPP
^C:\OLENKA\DEV\BATTLECITY\BATTLECITY\GAMEOBJECTS\BONUS.CPP
/c /IC:\OLENKA\DEV\BATTLECITY\BATTLECITY\\UTILS /IC:\OLENKA\DEV\BATTLECITY\BATTLECITY\\GAMEOBJECTS /IC:\OLENKA\DEV\BATTLECITY\BATTLECITY\\UI /IC:\OLENKA\DEV\BATTLECITY\BATTLECITY\\FX /ZI /JMC /nologo /W3 /WX- /diagnostics:column /sdl /Od /D _MBCS /Gm- /EHsc /RTC1 /MDd /GS /fp:precise /permissive- /Zc:wchar_t /Zc:forScope /Zc:inline /std:c++17 /Fo"X64\DEBUG\\" /Fd"X64\DEBUG\VC142.PDB" /Gd /TP /FC C:\OLENKA\DEV\BATTLECITY\BATTLECITY\GAMEOBJECTS\BONUS.CPP
^C:\OLENKA\DEV\BATTLECITY\BATTLECITY\GAMEOBJECTS\ENEMYTANK.CPP
/c /IC:\OLENKA\DEV\BATTLECITY\BATTLECITY\\UTILS /IC:\OLENKA\DEV\BATTLECITY\BATTLECITY\\GAMEOBJECTS /IC:\OLENKA\DEV\BATTLECITY\BATTLECITY\\UI /IC:\OLENKA\DEV\BATTLECITY\BATTLECITY\\FX /ZI /JMC /nologo /W3 /WX- /diagnostics:column /sdl /Od /D _MBCS /Gm- /EHsc /RTC1 /MDd /GS /fp:precise /permissive- /Zc:wchar_t /Zc:forScope /Zc:inline /std:c++17 /Fo"X64\DEBUG\\" /Fd"X64\DEBUG\VC142.PDB" /Gd /TP /FC C:\OLENKA\DEV\BATTLECITY\BATTLECITY\GAMEOBJECTS\ENEMYTANK.CPP
^C:\OLENKA\DEV\BATTLECITY\BATTLECITY\GAMEOBJECTS\PLAYERTANK.CPP
/c /IC:\OLENKA\DEV\BATTLECITY\BATTLECITY\\UTILS /IC:\OLENKA\DEV\BATTLECITY\BATTLECITY\\GAMEOBJECTS /IC:\OLENKA\DEV\BATTLECITY\BATTLECITY\\UI /IC:\OLENKA\DEV\BATTLECITY\BATTLECITY\\FX /ZI /JMC /nologo /W3 /WX- /diagnostics:column /sdl /Od /D _MBCS /Gm- /EHsc /RTC1 /MDd /GS /fp:precise /permissive- /Zc:wchar_t /Zc:forScope /Zc:inline /std:c++17 /Fo"X64\DEBUG\\" /Fd"X64\DEBUG\VC142.PDB" /Gd /TP /FC C:\OLENKA\DEV\BATTLECITY\BATTLECITY\GAMEOBJECTS\PLAYERTANK.CPP
